{
    "branches": [{
        "id": "3002",
        "shortName": "Московский филиал АО \"Райффайзенбанк\"",
        "intName": "Филиал \"Московский\" Акционерного общества \"Райффайзенбанк\" в г. Москва",
        "bic": "044525700",
        "payName": "АО \"РАЙФФАЙЗЕНБАНК\"",
        "intPayName": "RAIFFEISENBANK ZAO",
        "corAccount": "30101810200000000700",
        "placeType": "Г",
        "place": "МОСКВА",
        "intPlace": "MOSCOW",
        "swift": "RZBMRUMM",
        "countryCode": "643",
        "countryIsoCode": "RU",
        "address": "",
        "intAddress": "17/1 TROICKAYA UL.",
        "placeShortName": "Г",
        "timeZone": "10800"
    }, {
        "id": "1",
        "shortName": "АО \"РАЙФФАЙЗЕНБАНК\" сокр",
        "intName": "akcionernoe obshestvo AO Raif poln",
        "bic": "044525700",
        "payName": "АО \"РАЙФФАЙЗЕНБАНК\"",
        "intPayName": "RAIFFEISENBANK ZAO",
        "corAccount": "30101810200000000700",
        "placeType": "Г",
        "place": "МОСКВА",
        "intPlace": "MOSCOW",
        "swift": "RZBMRUMM",
        "countryCode": "643",
        "countryIsoCode": "RU",
        "address": "",
        "intAddress": "17/1 TROICKAYA UL.",
        "placeShortName": "Г",
        "timeZone": "10800"
    }, {
        "id": "28543",
        "shortName": "ДО \"Центральный\" Сибирского филиала АО \"Райффайзенбанк\"",
        "intName": "Дополнительный офис \"Центральный\" Сибирского филиала Акционерного общества \"Райффайзенбанк\"",
        "bic": "045004799",
        "payName": "СИБИРСКИЙ ФИЛИАЛ АО \"РАЙФФАЙЗЕНБАНК\"",
        "intPayName": "",
        "corAccount": "30101810300000000799",
        "placeType": "Г",
        "place": "НОВОСИБИРСК",
        "intPlace": "",
        "swift": "",
        "countryCode": "",
        "countryIsoCode": "",
        "address": "",
        "intAddress": "",
        "placeShortName": "Г",
        "timeZone": "10800"
    }, {
        "id": "11751",
        "shortName": "Отделение \"Тишинское\"",
        "intName": "Отделение \"Тишинское\"",
        "bic": "",
        "payName": "",
        "intPayName": "",
        "corAccount": "",
        "placeType": "",
        "place": "",
        "intPlace": "",
        "swift": "",
        "countryCode": "",
        "countryIsoCode": "",
        "address": "",
        "intAddress": "",
        "placeShortName": "",
        "timeZone": "10800"
    }, {
        "id": "5f206b2f-420f-4102-bed4-cc24bb29b3ad",
        "shortName": "Банк без Уп. банка",
        "intName": "Банк без Уп. банка",
        "bic": "",
        "payName": "",
        "intPayName": "",
        "corAccount": "",
        "placeType": "",
        "place": "",
        "intPlace": "",
        "swift": "",
        "countryCode": "",
        "countryIsoCode": "",
        "address": "",
        "intAddress": "",
        "placeShortName": "",
        "timeZone": "10800"
    }, {
        "id": "11778",
        "shortName": "Отделение \"Дмитровское\"",
        "intName": "Отделение \"Дмитровское\"",
        "bic": "",
        "payName": "",
        "intPayName": "",
        "corAccount": "",
        "placeType": "",
        "place": "",
        "intPlace": "",
        "swift": "",
        "countryCode": "",
        "countryIsoCode": "",
        "address": "",
        "intAddress": "",
        "placeShortName": "",
        "timeZone": "10800"
    }],
    "orgs": [{
        "id": "a7468808-5048-4d99-b9ad-0557e06b5410",
        "shortName": "ООО Керамика Люкс",
        "inn": "3250503443",
        "intName": "KERAMIKA LYUKS OOO",
        "intAddress": "UL. GOR'KOGO, D. 2A",
        "name": "Общество с ограниченной ответственностью Керамика Люкс",
        "kpp": "325701001",
        "lawType": "ООО",
        "ogrn": "1083254000830",
        "city": "Брянск г",
        "area": "Брянская обл",
        "country": "Российская Федерация"
    }, {
        "id": "e39cdb8a-5cb8-4d9a-be14-300be43043e3",
        "shortName": "ООО Диасофт",
        "inn": "7715560268",
        "intName": "DIASOFT OOO",
        "intAddress": "RUS",
        "name": "Общество с ограниченной ответственностью Диасофт",
        "kpp": "771501001",
        "lawType": "ООО",
        "ogrn": "1057746642436",
        "city": "Москва",
        "area": "",
        "country": "Российская Федерация"
    }, {
        "id": "770ab61a-cd88-4e06-9113-7a91f614decc",
        "shortName": "ООО Агроимпекс-Трейд",
        "inn": "7706630960",
        "intName": "AGROIMPEKS-TREID OOO",
        "intAddress": "",
        "name": "Общество с ограниченной ответственностью Агроимпекс-Трейд",
        "kpp": "770601001",
        "lawType": "ООО",
        "ogrn": "5067746351020",
        "city": "",
        "area": "Москва",
        "country": "Российская Федерация"
    }],
    "links": [{
        "orgId": "1",
        "branchId": "a7468808-5048-4d99-b9ad-0557e06b5410"
    }, {
        "orgId": "1",
        "branchId": "e39cdb8a-5cb8-4d9a-be14-300be43043e3"
    }, {
        "orgId": "3002",
        "branchId": "770ab61a-cd88-4e06-9113-7a91f614decc"
    }, {
        "orgId": "3002",
        "branchId": "a7468808-5048-4d99-b9ad-0557e06b5410"
    }, {
        "orgId": "3002",
        "branchId": "e39cdb8a-5cb8-4d9a-be14-300be43043e3"
    }, {
        "orgId": "28543",
        "branchId": "e39cdb8a-5cb8-4d9a-be14-300be43043e3"
    }, {
        "orgId": "11778",
        "branchId": "770ab61a-cd88-4e06-9113-7a91f614decc"
    }, {
        "orgId": "5f206b2f-420f-4102-bed4-cc24bb29b3ad",
        "branchId": "e39cdb8a-5cb8-4d9a-be14-300be43043e3"
    }, {
        "orgId": "11751",
        "branchId": "e39cdb8a-5cb8-4d9a-be14-300be43043e3"
    }]
}
