[
  {
    "statementRecordID": "rur17794",
    "recordID": "8f73767c-a793-4b74-b1d2-8e98ac0ae347",
    "credit": true,
    "paymentPurpose": "(VO20050) УСЛУГИ ЮРИДИЧЕСКИЕ.ДОГ.37/11/09 ОТ 18/12/2009.СЧ.37/11/09-02 БЕЗ НДС",
    "corrName": "ЗАО \"Компания СФТ\"",
    "account": "40703810000001400953",
    "inn": "",
    "operNumber": "",
    "sum": 0.8,
    "isFinal": false,
    "stmtDate": "2011-02-24",
    "operType": 1,
    "aviseType": 701,
    "corrAccount": "40703810000001400953",
    "corrBankName": "ОАО \"СБЕРБАНК РОССИИ\" Г МОСКВА",
    "orgName": "ЗАО \"Компания СФТ\""
  },
  {
    "statementRecordID": "cur77176",
    "recordID": "3a553dc1-23e5-4b99-accf-823c6461bfea",
    "credit": true,
    "paymentPurpose": "Конверсионная операция сроком 01.02.12. Курс 30.5836. Референс банковской проводки CE7493 от 01.02.12. UR RUR/USD 30.5836 A1202010067                                                                              ",
    "corrName": "ЗАО ГРУППА ЧЕРКИЗОВО сокращенное наименование",
    "account": "40702840600001403923",
    "inn": "",
    "operNumber": "",
    "sum": 494.35,
    "isFinal": true,
    "stmtDate": "2012-02-01",
    "operType": 1,
    "aviseType": 501,
    "corrAccount": "40702840600001403923",
    "corrBankName": "ЗАО \"Райффайзенбанк\" г. Москва",
    "orgName": "ЗАО ГРУППА ЧЕРКИЗОВО сокращенное наименование"
  },
  {
    "statementRecordID": "cur5456",
    "recordID": "7d23212b-ce20-4c3f-8361-7668317b721a",
    "credit": true,
    "paymentPurpose": "Референс P1011290510IN00. /RFB/INVOICENO.140206-06 DD 221110   ./INS/LIKICY2N001                                                                                                                                   ",
    "corrName": "ЗАО \"Компания СФТ\"",
    "account": "40703840000000400953",
    "inn": "",
    "operNumber": "",
    "sum": 2000,
    "isFinal": true,
    "stmtDate": "2010-11-29",
    "operType": 1,
    "aviseType": 301,
    "corrAccount": "40703840000000400953",
    "corrBankName": "",
    "orgName": "ЗАО \"Компания СФТ\""
  },
  {
    "statementRecordID": "rur44044",
    "recordID": "58c9b9ef-38b2-402c-8c92-60486b4e415b",
    "credit": true,
    "paymentPurpose": "Оплата за ООО \"АВИОНИКА МАИ\". Оплата расходов, связан. с оказанием юридической помощи,  по счету №19/01/09-66 от 28.02.2011 г. НДС не облагается.",
    "corrName": "ЗАО \"Компания СФТ\"",
    "account": "40703810000001400953",
    "inn": "",
    "operNumber": "",
    "sum": 4080,
    "isFinal": true,
    "stmtDate": "2011-04-08",
    "operType": 1,
    "aviseType": 701,
    "corrAccount": "40703810000001400953",
    "corrBankName": "ОАО \"НББ\" Г МОСКВА",
    "orgName": "ЗАО \"Компания СФТ\""
  }
]
