<svg width="24px" height="24px" viewBox="0 0 24 24" version="1.1" xmlns="http://www.w3.org/2000/svg" focusable="false">
    <g id="icon-copy">
        <path d="M14.1552,7.452 L8.6436,7.452 L8.6436,20.16 L18.9552,20.16 L18.9552,12.3672 L14.8752,12.3672 C14.477555,12.3672 14.1552,12.044845 14.1552,11.6472 L14.1552,7.452 Z M15.5952,8.4936 L15.5952,10.9272 L17.9832,10.9272 L15.5952,8.4936 L15.5952,8.4936 Z M7.9236,6.012 L14.8752,6.012 C15.0684501,6.0121565 15.253525,6.08999175 15.3888,6.228 L20.1888,11.1192 C20.3209367,11.253695 20.3950444,11.4346556 20.3952,11.6232 L20.3952,20.88 C20.3952,21.277645 20.072845,21.6 19.6752,21.6 L7.9236,21.6 C7.52595498,21.6 7.2036,21.277645 7.2036,20.88 L7.2036,6.732 C7.2036,6.33435498 7.52595498,6.012 7.9236,6.012 L7.9236,6.012 Z M5.04,3.84 L5.04,18.7452 C5.04,19.142845 4.71764502,19.4652 4.32,19.4652 C3.92235498,19.4652 3.6,19.142845 3.6,18.7452 L3.6,3.1212 C3.59968139,2.9300363 3.67539764,2.74659305 3.81045838,2.6113072 C3.94551912,2.47602136 4.12883603,2.39999973 4.32,2.4 L12.024,2.4 C12.421645,2.4 12.744,2.72235498 12.744,3.12 C12.744,3.51764502 12.421645,3.84 12.024,3.84 L5.04,3.84 L5.04,3.84 Z" />
    </g>
</svg>