<svg width="24px" height="24px" viewBox="0 0 24 24" version="1.1" xmlns="http://www.w3.org/2000/svg" focusable="false">
    <g id="icon-menu-all">
        <path d="M2.4,4.8 L21.6,4.8 L21.6,7.2 L2.4,7.2 L2.4,4.8 Z M2.4,10.8 L21.6,10.8 L21.6,13.2 L2.4,13.2 L2.4,10.8 Z M2.4,16.8 L21.6,16.8 L21.6,19.2 L2.4,19.2 L2.4,16.8 Z" />
    </g>
</svg>